^C:\Users\Dell\Desktop\OJP - nauka\slide_puzzle\slide_puzzle.vcxproj
C:\Users\Dell\Desktop\OJP - nauka\slide_puzzle\Debug\slide_puzzle.Form1.resources
^C:\Users\Dell\Desktop\OJP - nauka\slide_puzzle\slide_puzzle.vcxproj
C:\Users\Dell\Desktop\OJP - nauka\slide_puzzle\Debug\slide_puzzle.Form1.resources
^C:\Users\Dell\Desktop\OJP - nauka\slide_puzzle\slide_puzzle.vcxproj
C:\Users\Dell\Desktop\OJP - nauka\slide_puzzle\Debug\slide_puzzle.Form1.resources
^C:\Users\Dell\Desktop\OJP - nauka\slide_puzzle\slide_puzzle.vcxproj
C:\Users\Dell\Desktop\OJP - nauka\slide_puzzle\Debug\slide_puzzle.Form1.resources
^C:\Users\Dell\Desktop\OJP - nauka\slide_puzzle\slide_puzzle.vcxproj
C:\Users\Dell\Desktop\OJP - nauka\slide_puzzle\Debug\slide_puzzle.Form1.resources
